tidymodels
…
* 😄 This automagically creates a data frame

---

## Get predictions

```r
lm_fit %>%
  predict(new_data = Auto) %>%
  bind_cols(Auto)
```

```
## # A tibble: 392 x 10
##    .pred   mpg cylinders displacement horsepower weight acceleration  year
##  * <dbl> <dbl>     <dbl>        <dbl>      <dbl>  <dbl>        <dbl> <dbl>
##  1 19.4     18         8          307        130   3504         12      70
##  2 13.9     15         8          350        165   3693         11.5    70
##  3 16.3     18         8          318        150   3436         11      70
##  4 16.3     16         8          304        150   3433         12      70
##  5 17.8     17         8          302        140   3449         10.5    70
##  6  8.68    15         8          429        198   4341         10      70
##  7  5.21    14         8          454        220   4354          9      70
##  8  6.00    14         8          440        215   4312          8.5    70
##  9  4.42    14         8          455        225   4425         10      70
## 10  9.95    15         8          390        190   3850          8.5    70
## # … with 382 more rows, and 2 more variables: origin <dbl>, name <fct>
```
…
---

## Get predictions

```r
mpg_pred <- lm_fit %>%
  predict(new_data = Auto) %>%
  bind_cols(Auto)

mpg_pred
```

```
## # A tibble: 392 x 10
##    .pred   mpg cylinders displacement horsepower weight acceleration  year
##  * <dbl> <dbl>     <dbl>        <dbl>      <dbl>  <dbl>        <dbl> <dbl>
##  1 19.4     18         8          307        130   3504         12      70
##  2 13.9     15         8          350        165   3693         11.5    70
##  3 16.3     18         8          318        150   3436         11      70
##  4 16.3     16         8          304        150   3433         12      70
##  5 17.8     17         8          302        140   3449         10.5    70
##  6  8.68    15         8          429        198   4341         10      70
##  7  5.21    14         8          454        220   4354          9      70
##  8  6.00    14         8          440        215   4312          8.5    70
##  9  4.42    14         8          455        225   4425         10      70
## 10  9.95    15         8          390        190   3850          8.5    70
## # … with 382 more rows, and 2 more variables: origin <dbl>, name <fct>
```
…
## Validation set approach

```r
Auto_train <- training(Auto_split)
```

```r
Auto_train
```

.small[

```
## # A tibble: 196 x 9
##      mpg cylinders displacement horsepower weight acceleration  year origin
##    <dbl>     <dbl>        <dbl>      <dbl>  <dbl>        <dbl> <dbl>  <dbl>
##  1    14         8          454        220   4354          9      70      1
##  2    15         8          383        170   3563         10      70      1
##  3    14         8          340        160   3609          8      70      1
##  4    14         8          455        225   3086         10      70      1
##  5    24         4          113         95   2372         15      70      3
##  6    18         6          199         97   2774         15.5    70      1
##  7    21         6          200         85   2587         16      70      1
##  8    25         4          110         87   2672         17.5    70      2
##  9    24         4          107         90   2430         14.5    70      2
## 10    25         4          104         95   2375         17.5    70      2
## # … with 186 more rows, and 1 more variable: name <fct>
```
…
