tidymodels
…
## Validation set approach

```r
Auto_train <- training(Auto_split)
```

```r
Auto_train
```

.small[

```
## # A tibble: 196 x 9
##      mpg cylinders displacement horsepower weight acceleration  year origin
##    <dbl>     <dbl>        <dbl>      <dbl>  <dbl>        <dbl> <dbl>  <dbl>
##  1    18         8          307        130   3504         12      70      1
##  2    18         8          318        150   3436         11      70      1
##  3    16         8          304        150   3433         12      70      1
##  4    17         8          302        140   3449         10.5    70      1
##  5    15         8          429        198   4341         10      70      1
##  6    15         8          390        190   3850          8.5    70      1
##  7    14         8          340        160   3609          8      70      1
##  8    15         8          400        150   3761          9.5    70      1
##  9    24         4          113         95   2372         15      70      3
## 10    22         6          198         95   2833         15.5    70      1
## # … with 186 more rows, and 1 more variable: name <fct>
```
…
---

## tune 🎶

```r
results %>%
  collect_metrics()
```

```
## # A tibble: 132 x 7
##    penalty mixture .metric .estimator  mean     n std_err
##      <dbl>   <dbl> <chr>   <chr>      <dbl> <int>   <dbl>
##  1       0     0   rmse    standard   4.23      5  0.280 
##  2       0     0   rsq     standard   0.708     5  0.0166
##  3       0     0.2 rmse    standard   4.22      5  0.273 
##  4       0     0.2 rsq     standard   0.709     5  0.0154
##  5       0     0.4 rmse    standard   4.22      5  0.273 
##  6       0     0.4 rsq     standard   0.709     5  0.0154
##  7       0     0.6 rmse    standard   4.22      5  0.273 
##  8       0     0.6 rsq     standard   0.709     5  0.0154
##  9       0     0.8 rmse    standard   4.22      5  0.273 
## 10       0     0.8 rsq     standard   0.709     5  0.0153
## # … with 122 more rows
```

---

## Subset results

```r
results %>%
  collect_metrics() %>%
  filter(.metric == "rmse") %>%
  arrange(mean)
```

```
## # A tibble: 66 x 7
##    penalty mixture .metric .estimator  mean     n std_err
##      <dbl>   <dbl> <chr>   <chr>      <dbl> <int>   <dbl>
##  1       0     0.2 rmse    standard    4.22     5   0.273
##  2       0     0.6 rmse    standard    4.22     5   0.273
##  3       0     0.4 rmse    standard    4.22     5   0.273
##  4       0     0.8 rmse    standard    4.22     5   0.273
##  5       0     1   rmse    standard    4.22     5   0.273
##  6       0     0   rmse    standard    4.23     5   0.280
##  7      10     0   rmse    standard    4.73     5   0.308
##  8      20     0   rmse    standard    5.29     5   0.313
##  9      10     0.2 rmse    standard    5.37     5   0.316
## 10      30     0   rmse    standard    5.70     5   0.314
## # … with 56 more rows
```
…
tuning <- tune_grid(penalty_spec,
                     rec,
                     grid = grid,
                     resamples = auto_cv)

tuning %>%
  collect_metrics() %>%
  filter(.metric == "rmse") %>%
  arrange(mean)
```

```
## # A tibble: 66 x 7
##    penalty mixture .metric .estimator  mean     n std_err
##      <dbl>   <dbl> <chr>   <chr>      <dbl> <int>   <dbl>
##  1       0     0   rmse    standard    4.48     5   0.195
##  2       0     1   rmse    standard    4.49     5   0.223
##  3       0     0.8 rmse    standard    4.49     5   0.223
##  4       0     0.6 rmse    standard    4.49     5   0.223
##  5       0     0.4 rmse    standard    4.51     5   0.228
##  6       0     0.2 rmse    standard    4.51     5   0.228
##  7      10     0   rmse    standard    4.90     5   0.170
##  8      20     0   rmse    standard    5.44     5   0.203
##  9      10     0.2 rmse    standard    5.52     5   0.216
## 10      30     0   rmse    standard    5.84     5   0.228
## # … with 56 more rows
```
…
